Results/Hardware Results/Fixed R/ALL0011/F0011CH1.CSV

Record Length,2.500000e+03,,  -0.000027800000,   3.20000,
Sample Interval,2.000000e-08,,  -0.000027780000,   3.36000,
Trigger Point,1.390000000000e+03,,  -0.000027760000,   3.20000,
,,,  -0.000027740000,   3.28000,
,,,  -0.000027720000,   3.20000,
,,,  -0.000027700000,   3.20000,
Source,CH1,,  -0.000027680000,   3.28000,
Vertical Units,V,,  -0.000027660000,   3.20000,
Vertical Scale,2.000000e+00,,  -0.000027640000,   3.28000,
Vertical Offset,2.080000e+00,,  -0.000027620000,   3.28000,
Horizontal Units,s,,  -0.000027600000,   3.20000,
Horizontal Scale,5.000000e-06,,  -0.000027580000,   3.20000,
Pt Fmt,Y,,  -0.000027560000,   3.28000,
Yzero,0.000000e+00,,  -0.000027540000,   3.28000,
Probe Atten,1.000000e+00,,  -0.000027520000,   3.20000,
Model Number,TBS1062,,  -0.000027500000,   3.28000,
Serial Number,C012938,,  -0.000027480000,   3.28000,
Firmware Version,FV:v26.01,,  -0.000027460000,   3.28000,
,,,-00.000027440000,   3.28000,
,,,-00.000027420000,   3.28000,
,,,-00.000027400000,   3.20000,
,,,-00.000027380000,   3.20000,
,,,-00.000027360000,   3.20000,
,,,-00.000027340000,   3.20000,
,,,-00.000027320000,   3.28000,
,,,-00.000027300000,   3.20000,
,,,-00.000027280000,   3.20000,
,,,-00.000027260000,   3.28000,
,,,-00.000027240000,   3.20000,
,,,-00.000027220000,   3.20000,
,,,-00.000027200000,   3.20000,
,,,-00.000027180000,   3.12000,
,,,-00.000027160000,   3.28000,
,,,-00.000027140000,   3.20000,
,,,-00.000027120000,   3.28000,
,,,-00.000027100000,   3.28000,
,,,-00.000027080000,   3.20000,
,,,-00.000027060000,   3.36000,
,,,-00.000027040000,   3.28000,
,,,-00.000027020000,   3.20000,
,,,-00.000027000000,   3.12000,
,,,-00.000026980000,   3.28000,
,,,-00.000026960000,   3.28000,
,,,-00.000026940000,   3.20000,
,,,-00.000026920000,   3.28000,
,,,-00.000026900000,   3.20000,
,,,-00.000026880000,   3.28000,
,,,-00.000026860000,   3.28000,
,,,-00.000026840000,   3.20000,
,,,-00.000026820000,   3.28000,
,,,-00.000026800000,   3.28000,
,,,-00.000026780000,   3.20000,
,,,-00.000026760000,   3.28000,
,,,-00.000026740000,   3.20000,
,,,-00.000026720000,   3.20000,
,,,-00.000026700000,   3.20000,
,,,-00.000026680000,   3.28000,
,,,-00.000026660000,   3.28000,
,,,-00.000026640000,   3.36000,
,,,-00.000026620000,   3.12000,
,,,-00.000026600000,   3.20000,
,,,-00.000026580000,   3.28000,
,,,-00.000026560000,   3.28000,
,,,-00.000026540000,   3.20000,
,,,-00.000026520000,   3.28000,
,,,-00.000026500000,   3.20000,
,,,-00.000026480000,   3.28000,
,,,-00.000026460000,   3.28000,
,,,-00.000026440000,   3.28000,
,,,-00.000026420000,   3.20000,
,,,-00.000026400000,   3.20000,
,,,-00.000026380000,   3.20000,
,,,-00.000026360000,   3.28000,
,,,-00.000026340000,   3.04000,
,,,-00.000026320000,   3.28000,
,,,-00.000026300000,   3.28000,
,,,-00.000026280000,   3.36000,
,,,-00.000026260000,   3.28000,
,,,-00.000026240000,   3.28000,
,,,-00.000026220000,   3.20000,
,,,-00.000026200000,   3.28000,
,,,-00.000026180000,   3.20000,
,,,-00.000026160000,   3.20000,
,,,-00.000026140000,   3.28000,
,,,-00.000026120000,   3.28000,
,,,-00.000026100000,   3.12000,
,,,-00.000026080000,   3.28000,
,,,-00.000026060000,   3.20000,
,,,-00.000026040000,   3.36000,
,,,-00.000026020000,   3.20000,
,,,-00.000026000000,   3.36000,
,,,-00.000025980000,   3.28000,
,,,-00.000025960000,   3.20000,
,,,-00.000025940000,   3.20000,
,,,-00.000025920000,   3.20000,
,,,-00.000025900000,   3.28000,
,,,-00.000025880000,   3.28000,
,,,-00.000025860000,   3.20000,
,,,-00.000025840000,   3.28000,
,,,-00.000025820000,   3.12000,
,,,-00.000025800000,   3.28000,
,,,-00.000025780000,   2.48000,
,,,-00.000025760000,   0.48000,
,,,-00.000025740000,  -0.24000,
,,,-00.000025720000,  -0.08000,
,,,-00.000025700000,   0.00000,
,,,-00.000025680000,  -0.08000,
,,,-00.000025660000,   0.00000,
,,,-00.000025640000,  -0.08000,
,,,-00.000025620000,   0.08000,
,,,-00.000025600000,   0.08000,
,,,-00.000025580000,  -0.08000,
,,,-00.000025560000,   0.00000,
,,,-00.000025540000,   0.00000,
,,,-00.000025520000,   0.00000,
,,,-00.000025500000,   0.00000,
,,,-00.000025480000,   0.16000,
,,,-00.000025460000,   0.00000,
,,,-00.000025440000,   0.00000,
,,,-00.000025420000,   0.00000,
,,,-00.000025400000,   0.00000,
,,,-00.000025380000,   0.00000,
,,,-00.000025360000,   0.00000,
,,,-00.000025340000,   0.00000,
,,,-00.000025320000,   0.00000,
,,,-00.000025300000,  -0.08000,
,,,-00.000025280000,  -0.08000,
,,,-00.000025260000,   0.00000,
,,,-00.000025240000,   0.08000,
,,,-00.000025220000,   0.00000,
,,,-00.000025200000,   0.08000,
,,,-00.000025180000,   0.00000,
,,,-00.000025160000,   0.08000,
,,,-00.000025140000,   0.00000,
,,,-00.000025120000,   0.08000,
,,,-00.000025100000,   0.08000,
,,,-00.000025080000,  -0.08000,
,,,-00.000025060000,   0.08000,
,,,-00.000025040000,   0.00000,
,,,-00.000025020000,   0.00000,
,,,-00.000025000000,   0.08000,
,,,-00.000024980000,   0.08000,
,,,-00.000024960000,   0.00000,
,,,-00.000024940000,   0.08000,
,,,-00.000024920000,   0.00000,
,,,-00.000024900000,   0.00000,
,,,-00.000024880000,   0.00000,
,,,-00.000024860000,   0.00000,
,,,-00.000024840000,   0.08000,
,,,-00.000024820000,   0.08000,
,,,-00.000024800000,   0.08000,
,,,-00.000024780000,   0.08000,
,,,-00.000024760000,   0.08000,
,,,-00.000024740000,   0.00000,
,,,-00.000024720000,  -0.08000,
,,,-00.000024700000,   0.00000,
,,,-00.000024680000,   0.00000,
,,,-00.000024660000,   0.00000,
,,,-00.000024640000,   0.00000,
,,,-00.000024620000,   0.00000,
,,,-00.000024600000,   0.00000,
,,,-00.000024580000,   0.00000,
,,,-00.000024560000,  -0.08000,
,,,-00.000024540000,   0.00000,
,,,-00.000024520000,   0.00000,
,,,-00.000024500000,   0.00000,
,,,-00.000024480000,   0.08000,
,,,-00.000024460000,   0.16000,
,,,-00.000024440000,   0.16000,
,,,-00.000024420000,   0.08000,
,,,-00.000024400000,   0.00000,
,,,-00.000024380000,  -0.08000,
,,,-00.000024360000,   0.00000,
,,,-00.000024340000,  -0.08000,
,,,-00.000024320000,   0.00000,
,,,-00.000024300000,   0.08000,
,,,-00.000024280000,   0.00000,
,,,-00.000024260000,   0.08000,
,,,-00.000024240000,   0.08000,
,,,-00.000024220000,   0.00000,
,,,-00.000024200000,   0.08000,
,,,-00.000024180000,   0.00000,
,,,-00.000024160000,   0.00000,
,,,-00.000024140000,   0.00000,
,,,-00.000024120000,   0.00000,
,,,-00.000024100000,   0.00000,
,,,-00.000024080000,   0.00000,
,,,-00.000024060000,   0.08000,
,,,-00.000024040000,   0.00000,
,,,-00.000024020000,   0.08000,
,,,-00.000024000000,   0.08000,
,,,-00.000023980000,   0.08000,
,,,-00.000023960000,   0.08000,
,,,-00.000023940000,   0.00000,
,,,-00.000023920000,   0.08000,
,,,-00.000023900000,   0.08000,
,,,-00.000023880000,   0.08000,
,,,-00.000023860000,   0.08000,
,,,-00.000023840000,   0.00000,
,,,-00.000023820000,   0.08000,
,,,-00.000023800000,   0.00000,
,,,-00.000023780000,   0.00000,
,,,-00.000023760000,   0.00000,
,,,-00.000023740000,   0.08000,
,,,-00.000023720000,   0.16000,
,,,-00.000023700000,   0.00000,
,,,-00.000023680000,   0.08000,
,,,-00.000023660000,   0.08000,
,,,-00.000023640000,   0.08000,
,,,-00.000023620000,   0.08000,
,,,-00.000023600000,   0.08000,
,,,-00.000023580000,   0.08000,
,,,-00.000023560000,   0.08000,
,,,-00.000023540000,   0.00000,
,,,-00.000023520000,   0.00000,
,,,-00.000023500000,   0.08000,
,,,-00.000023480000,   0.08000,
,,,-00.000023460000,   0.08000,
,,,-00.000023440000,   0.00000,
,,,-00.000023420000,   0.00000,
,,,-00.000023400000,   0.00000,
,,,-00.000023380000,   0.00000,
,,,-00.000023360000,   0.08000,
,,,-00.000023340000,   0.00000,
,,,-00.000023320000,   0.00000,
,,,-00.000023300000,   0.00000,
,,,-00.000023280000,   0.08000,
,,,-00.000023260000,   0.00000,
,,,-00.000023240000,   0.08000,
,,,-00.000023220000,   0.00000,
,,,-00.000023200000,   0.16000,
,,,-00.000023180000,   0.08000,
,,,-00.000023160000,   0.08000,
,,,-00.000023140000,   0.08000,
,,,-00.000023120000,   0.08000,
,,,-00.000023100000,   0.00000,
,,,-00.000023080000,   0.08000,
,,,-00.000023060000,   0.08000,
,,,-00.000023040000,   0.00000,
,,,-00.000023020000,   0.08000,
,,,-00.000023000000,   0.00000,
,,,-00.000022980000,   0.00000,
,,,-00.000022960000,   0.16000,
,,,-00.000022940000,   0.00000,
,,,-00.000022920000,   0.08000,
,,,-00.000022900000,   0.00000,
,,,-00.000022880000,  -0.08000,
,,,-00.000022860000,   0.00000,
,,,-00.000022840000,   0.00000,
,,,-00.000022820000,   0.08000,
,,,-00.000022800000,   0.00000,
,,,-00.000022780000,   0.00000,
,,,-00.000022760000,   0.00000,
,,,-00.000022740000,   0.00000,
,,,-00.000022720000,   0.00000,
,,,-00.000022700000,   0.08000,
,,,-00.000022680000,   0.00000,
,,,-00.000022660000,   0.00000,
,,,-00.000022640000,   0.00000,
,,,-00.000022620000,   0.08000,
,,,-00.000022600000,   0.08000,
,,,-00.000022580000,   0.00000,
,,,-00.000022560000,   0.00000,
,,,-00.000022540000,   0.00000,
,,,-00.000022520000,   0.00000,
,,,-00.000022500000,   0.00000,
,,,-00.000022480000,   0.08000,
,,,-00.000022460000,   1.60000,
,,,-00.000022440000,   3.12000,
,,,-00.000022420000,   3.44000,
,,,-00.000022400000,   3.36000,
,,,-00.000022380000,   3.28000,
,,,-00.000022360000,   3.20000,
,,,-00.000022340000,   3.28000,
,,,-00.000022320000,   3.28000,
,,,-00.000022300000,   3.20000,
,,,-00.000022280000,   3.28000,
,,,-00.000022260000,   3.28000,
,,,-00.000022240000,   3.20000,
,,,-00.000022220000,   3.36000,
,,,-00.000022200000,   3.28000,
,,,-00.000022180000,   3.28000,
,,,-00.000022160000,   3.12000,
,,,-00.000022140000,   3.20000,
,,,-00.000022120000,   3.28000,
,,,-00.000022100000,   3.20000,
,,,-00.000022080000,   3.28000,
,,,-00.000022060000,   3.20000,
,,,-00.000022040000,   3.36000,
,,,-00.000022020000,   3.36000,
,,,-00.000022000000,   3.28000,
,,,-00.000021980000,   3.20000,
,,,-00.000021960000,   3.28000,
,,,-00.000021940000,   3.36000,
,,,-00.000021920000,   3.20000,
,,,-00.000021900000,   3.28000,
,,,-00.000021880000,   3.28000,
,,,-00.000021860000,   3.28000,
,,,-00.000021840000,   3.36000,
,,,-00.000021820000,   3.12000,
,,,-00.000021800000,   3.28000,
,,,-00.000021780000,   3.20000,
,,,-00.000021760000,   3.28000,
,,,-00.000021740000,   3.36000,
,,,-00.000021720000,   3.20000,
,,,-00.000021700000,   3.36000,
,,,-00.000021680000,   3.20000,
,,,-00.000021660000,   3.20000,
,,,-00.000021640000,   3.28000,
,,,-00.000021620000,   3.28000,
,,,-00.000021600000,   3.28000,
,,,-00.000021580000,   3.20000,
,,,-00.000021560000,   3.20000,
,,,-00.000021540000,   3.28000,
,,,-00.000021520000,   3.20000,
,,,-00.000021500000,   3.36000,
,,,-00.000021480000,   3.20000,
,,,-00.000021460000,   3.28000,
,,,-00.000021440000,   3.20000,
,,,-00.000021420000,   3.28000,
,,,-00.000021400000,   3.28000,
,,,-00.000021380000,   3.28000,
,,,-00.000021360000,   3.20000,
,,,-00.000021340000,   3.20000,
,,,-00.000021320000,   3.28000,
,,,-00.000021300000,   3.28000,
,,,-00.000021280000,   3.28000,
,,,-00.000021260000,   3.28000,
,,,-00.000021240000,   3.20000,
,,,-00.000021220000,   3.28000,
,,,-00.000021200000,   3.36000,
,,,-00.000021180000,   3.28000,
,,,-00.000021160000,   3.28000,
,,,-00.000021140000,   3.28000,
,,,-00.000021120000,   3.20000,
,,,-00.000021100000,   3.28000,
,,,-00.000021080000,   3.36000,
,,,-00.000021060000,   3.20000,
,,,-00.000021040000,   3.28000,
,,,-00.000021020000,   3.20000,
,,,-00.000021000000,   3.28000,
,,,-00.000020980000,   3.36000,
,,,-00.000020960000,   3.28000,
,,,-00.000020940000,   3.20000,
,,,-00.000020920000,   3.36000,
,,,-00.000020900000,   3.28000,
,,,-00.000020880000,   3.20000,
,,,-00.000020860000,   3.20000,
,,,-00.000020840000,   3.28000,
,,,-00.000020820000,   3.20000,
,,,-00.000020800000,   3.20000,
,,,-00.000020780000,   3.20000,
,,,-00.000020760000,   3.20000,
,,,-00.000020740000,   3.28000,
,,,-00.000020720000,   3.28000,
,,,-00.000020700000,   3.28000,
,,,-00.000020680000,   3.20000,
,,,-00.000020660000,   3.28000,
,,,-00.000020640000,   3.28000,
,,,-00.000020620000,   3.28000,
,,,-00.000020600000,   3.36000,
,,,-00.000020580000,   3.28000,
,,,-00.000020560000,   3.28000,
,,,-00.000020540000,   3.28000,
,,,-00.000020520000,   3.28000,
,,,-00.000020500000,   3.28000,
,,,-00.000020480000,   3.20000,
,,,-00.000020460000,   3.20000,
,,,-00.000020440000,   3.28000,
,,,-00.000020420000,   3.28000,
,,,-00.000020400000,   3.20000,
,,,-00.000020380000,   3.20000,
,,,-00.000020360000,   3.20000,
,,,-00.000020340000,   3.28000,
,,,-00.000020320000,   3.28000,
,,,-00.000020300000,   3.28000,
,,,-00.000020280000,   3.28000,
,,,-00.000020260000,   3.20000,
,,,-00.000020240000,   3.28000,
,,,-00.000020220000,   3.20000,
,,,-00.000020200000,   3.20000,
,,,-00.000020180000,   3.20000,
,,,-00.000020160000,   3.28000,
,,,-00.000020140000,   3.28000,
,,,-00.000020120000,   3.20000,
,,,-00.000020100000,   3.36000,
,,,-00.000020080000,   3.28000,
,,,-00.000020060000,   3.28000,
,,,-00.000020040000,   3.28000,
,,,-00.000020020000,   3.20000,
,,,-00.000020000000,   3.28000,
,,,-00.000019980000,   3.20000,
,,,-00.000019960000,   3.36000,
,,,-00.000019940000,   3.28000,
,,,-00.000019920000,   3.20000,
,,,-00.000019900000,   3.28000,
,,,-00.000019880000,   3.12000,
,,,-00.000019860000,   3.36000,
,,,-00.000019840000,   3.12000,
,,,-00.000019820000,   3.20000,
,,,-00.000019800000,   3.28000,
,,,-00.000019780000,   3.28000,
,,,-00.000019760000,   3.36000,
,,,-00.000019740000,   3.04000,
,,,-00.000019720000,   3.28000,
,,,-00.000019700000,   3.28000,
,,,-00.000019680000,   3.28000,
,,,-00.000019660000,   3.28000,
,,,-00.000019640000,   3.28000,
,,,-00.000019620000,   3.20000,
,,,-00.000019600000,   3.20000,
,,,-00.000019580000,   3.36000,
,,,-00.000019560000,   3.28000,
,,,-00.000019540000,   3.28000,
,,,-00.000019520000,   3.36000,
,,,-00.000019500000,   3.28000,
,,,-00.000019480000,   3.28000,
,,,-00.000019460000,   3.20000,
,,,-00.000019440000,   3.20000,
,,,-00.000019420000,   3.28000,
,,,-00.000019400000,   3.28000,
,,,-00.000019380000,   3.28000,
,,,-00.000019360000,   3.04000,
,,,-00.000019340000,   3.28000,
,,,-00.000019320000,   3.28000,
,,,-00.000019300000,   3.28000,
,,,-00.000019280000,   3.20000,
,,,-00.000019260000,   3.20000,
,,,-00.000019240000,   3.28000,
,,,-00.000019220000,   3.20000,
,,,-00.000019200000,   3.20000,
,,,-00.000019180000,   3.28000,
,,,-00.000019160000,   3.04000,
,,,-00.000019140000,   0.72000,
,,,-00.000019120000,  -0.16000,
,,,-00.000019100000,  -0.08000,
,,,-00.000019080000,  -0.08000,
,,,-00.000019060000,   0.08000,
,,,-00.000019040000,   0.00000,
,,,-00.000019020000,   0.00000,
,,,-00.000019000000,   0.08000,
,,,-00.000018980000,   0.00000,
,,,-00.000018960000,   0.00000,
,,,-00.000018940000,   0.08000,
,,,-00.000018920000,   0.08000,
,,,-00.000018900000,   0.00000,
,,,-00.000018880000,   0.00000,
,,,-00.000018860000,   0.08000,
,,,-00.000018840000,   0.08000,
,,,-00.000018820000,   0.08000,
,,,-00.000018800000,   0.08000,
,,,-00.000018780000,   0.00000,
,,,-00.000018760000,   0.00000,
,,,-00.000018740000,   0.00000,
,,,-00.000018720000,   0.00000,
,,,-00.000018700000,  -0.08000,
,,,-00.000018680000,   0.08000,
,,,-00.000018660000,   0.00000,
,,,-00.000018640000,   0.08000,
,,,-00.000018620000,   0.00000,
,,,-00.000018600000,   0.00000,
,,,-00.000018580000,   0.08000,
,,,-00.000018560000,   0.00000,
,,,-00.000018540000,   0.16000,
,,,-00.000018520000,   0.08000,
,,,-00.000018500000,  -0.08000,
,,,-00.000018480000,   0.08000,
,,,-00.000018460000,   0.00000,
,,,-00.000018440000,   0.00000,
,,,-00.000018420000,   0.00000,
,,,-00.000018400000,   0.08000,
,,,-00.000018380000,   0.00000,
,,,-00.000018360000,   0.00000,
,,,-00.000018340000,   0.08000,
,,,-00.000018320000,   0.08000,
,,,-00.000018300000,   0.08000,
,,,-00.000018280000,   0.08000,
,,,-00.000018260000,   0.00000,
,,,-00.000018240000,   0.08000,
,,,-00.000018220000,   0.08000,
,,,-00.000018200000,   0.00000,
,,,-00.000018180000,   0.08000,
,,,-00.000018160000,   0.00000,
,,,-00.000018140000,  -0.08000,
,,,-00.000018120000,   0.08000,
,,,-00.000018100000,   0.08000,
,,,-00.000018080000,   0.08000,
,,,-00.000018060000,   0.08000,
,,,-00.000018040000,   0.00000,
,,,-00.000018020000,   0.00000,
,,,-00.000018000000,   0.00000,
,,,-00.000017980000,   0.08000,
,,,-00.000017960000,   0.00000,
,,,-00.000017940000,   0.00000,
,,,-00.000017920000,   0.00000,
,,,-00.000017900000,   0.00000,
,,,-00.000017880000,   0.08000,
,,,-00.000017860000,  -0.08000,
,,,-00.000017840000,   0.08000,
,,,-00.000017820000,  -0.08000,
,,,-00.000017800000,   0.00000,
,,,-00.000017780000,   0.08000,
,,,-00.000017760000,  -0.08000,
,,,-00.000017740000,   0.00000,
,,,-00.000017720000,   0.00000,
,,,-00.000017700000,   0.08000,
,,,-00.000017680000,   0.00000,
,,,-00.000017660000,   0.00000,
,,,-00.000017640000,   0.00000,
,,,-00.000017620000,   0.00000,
,,,-00.000017600000,   0.00000,
,,,-00.000017580000,   0.00000,
,,,-00.000017560000,   0.08000,
,,,-00.000017540000,   0.00000,
,,,-00.000017520000,   0.00000,
,,,-00.000017500000,   0.00000,
,,,-00.000017480000,  -0.08000,
,,,-00.000017460000,   0.08000,
,,,-00.000017440000,   0.00000,
,,,-00.000017420000,   0.08000,
,,,-00.000017400000,   0.08000,
,,,-00.000017380000,   0.00000,
,,,-00.000017360000,   0.00000,
,,,-00.000017340000,   0.00000,
,,,-00.000017320000,   0.00000,
,,,-00.000017300000,   0.08000,
,,,-00.000017280000,   0.00000,
,,,-00.000017260000,   0.00000,
,,,-00.000017240000,   0.00000,
,,,-00.000017220000,   0.00000,
,,,-00.000017200000,   0.08000,
,,,-00.000017180000,   0.00000,
,,,-00.000017160000,   0.08000,
,,,-00.000017140000,   0.08000,
,,,-00.000017120000,   0.08000,
,,,-00.000017100000,   0.00000,
,,,-00.000017080000,   0.08000,
,,,-00.000017060000,   0.00000,
,,,-00.000017040000,   0.08000,
,,,-00.000017020000,   0.08000,
,,,-00.000017000000,   0.00000,
,,,-00.000016980000,  -0.16000,
,,,-00.000016960000,   0.00000,
,,,-00.000016940000,  -0.08000,
,,,-00.000016920000,   0.00000,
,,,-00.000016900000,   0.00000,
,,,-00.000016880000,   0.08000,
,,,-00.000016860000,   0.08000,
,,,-00.000016840000,   0.08000,
,,,-00.000016820000,   0.00000,
,,,-00.000016800000,   0.00000,
,,,-00.000016780000,   0.00000,
,,,-00.000016760000,   0.00000,
,,,-00.000016740000,   0.08000,
,,,-00.000016720000,   0.00000,
,,,-00.000016700000,   0.00000,
,,,-00.000016680000,   0.08000,
,,,-00.000016660000,  -0.08000,
,,,-00.000016640000,   0.08000,
,,,-00.000016620000,   0.08000,
,,,-00.000016600000,   0.00000,
,,,-00.000016580000,  -0.08000,
,,,-00.000016560000,   0.08000,
,,,-00.000016540000,   0.00000,
,,,-00.000016520000,   0.00000,
,,,-00.000016500000,   0.00000,
,,,-00.000016480000,   0.00000,
,,,-00.000016460000,   0.00000,
,,,-00.000016440000,   0.00000,
,,,-00.000016420000,   0.00000,
,,,-00.000016400000,   0.00000,
,,,-00.000016380000,   0.00000,
,,,-00.000016360000,  -0.08000,
,,,-00.000016340000,   0.00000,
,,,-00.000016320000,   0.08000,
,,,-00.000016300000,   0.08000,
,,,-00.000016280000,   0.08000,
,,,-00.000016260000,   0.08000,
,,,-00.000016240000,   0.00000,
,,,-00.000016220000,   0.00000,
,,,-00.000016200000,   0.08000,
,,,-00.000016180000,   0.08000,
,,,-00.000016160000,  -0.08000,
,,,-00.000016140000,   0.00000,
,,,-00.000016120000,   0.00000,
,,,-00.000016100000,   0.16000,
,,,-00.000016080000,   0.08000,
,,,-00.000016060000,   0.08000,
,,,-00.000016040000,   0.00000,
,,,-00.000016020000,   0.08000,
,,,-00.000016000000,   0.08000,
,,,-00.000015980000,   0.08000,
,,,-00.000015960000,   0.00000,
,,,-00.000015940000,   0.00000,
,,,-00.000015920000,   0.00000,
,,,-00.000015900000,   0.08000,
,,,-00.000015880000,  -0.08000,
,,,-00.000015860000,   0.00000,
,,,-00.000015840000,   1.28000,
,,,-00.000015820000,   3.04000,
,,,-00.000015800000,   3.44000,
,,,-00.000015780000,   3.28000,
,,,-00.000015760000,   3.28000,
,,,-00.000015740000,   3.28000,
,,,-00.000015720000,   3.28000,
,,,-00.000015700000,   3.28000,
,,,-00.000015680000,   3.20000,
,,,-00.000015660000,   3.28000,
,,,-00.000015640000,   3.28000,
,,,-00.000015620000,   3.28000,
,,,-00.000015600000,   3.28000,
,,,-00.000015580000,   3.36000,
,,,-00.000015560000,   3.28000,
,,,-00.000015540000,   3.28000,
